{
  "routes": [
    {
      "method": "GET",
      "path": "/restaurant",
      "handler": "restaurant.find",
      "config": {
        "policies": []
      }
    },
    {
      "method": "PUT",
      "path": "/restaurant",
      "handler": "restaurant.update",
      "config": {
        "policies": []
      }
    },
    {
      "method": "DELETE",
      "path": "/restaurant",
      "handler": "restaurant.delete",
      "config": {
        "policies": []
      }
    }
  ]
}
